-------------------------------------------------------------------------------
Test set: com.common.app.SpringbootCommonApplicationTests
-------------------------------------------------------------------------------
Tests run: 1, Failures: 0, Errors: 0, Skipped: 0, Time elapsed: 7.053 s - in com.common.app.SpringbootCommonApplicationTests
