C:\Users\Tecso\Documents\workspace_springTools\springboot-common\src\main\java\com\common\app\entity\EntidadComun.java
C:\Users\Tecso\Documents\workspace_springTools\springboot-common\src\main\java\com\common\app\entity\TipoIdentificacion.java
C:\Users\Tecso\Documents\workspace_springTools\springboot-common\src\main\java\com\common\app\dto\rs\CredencialesUsuarioRS.java
C:\Users\Tecso\Documents\workspace_springTools\springboot-common\src\main\java\com\common\app\dto\rs\CredencialesRS.java
C:\Users\Tecso\Documents\workspace_springTools\springboot-common\src\main\java\com\common\app\entity\Usuario.java
C:\Users\Tecso\Documents\workspace_springTools\springboot-common\src\main\java\com\common\app\util\Util.java
C:\Users\Tecso\Documents\workspace_springTools\springboot-common\src\main\java\com\common\app\dto\rs\UsuarioRS.java
C:\Users\Tecso\Documents\workspace_springTools\springboot-common\src\main\java\com\common\app\entity\CredencialesUsuario.java
C:\Users\Tecso\Documents\workspace_springTools\springboot-common\src\main\java\com\common\app\SpringbootCommonApplication.java
